<!--Scalable Vector Graphic-->
<svg xmlns="http://www.w3.org/2000/svg" 
     xmlns:xlink="http://www.w3.org/1999/xlink"  
     width="200px" 
     height="200px" 
     viewBox="0 0 200px 200px">

<g>
	<rect fill="none" width="200" height="200"/>
	<g>
		<path fill="#E91E63" d="M182.2,124.6l0.6-11.9c0.1-1.1-0.6-2-1.7-2.3l-11.5-3.1l-6.5-10c-0.6-0.9-1.7-1.3-2.7-0.9l-7.1,2.7V78.7
			h19.8c1,0,1.8-0.6,2.1-1.6c0.3-0.9,0-1.9-0.8-2.5L159,63.4V37.1c0-1.2-1-2.3-2.3-2.3h-15.9c-1.2,0-2.3,1-2.3,2.3v11.4L99.2,19.9
			c-0.8-0.6-1.9-0.6-2.7,0L21.4,74.6c-0.8,0.6-1.1,1.6-0.8,2.5c0.3,0.9,1.2,1.6,2.1,1.6h19.8v86.6c0,1.2,1,2.3,2.3,2.3h87.1l3.7,5.7
			c0.6,0.9,1.7,1.3,2.7,0.9l11.1-4.2l11.1,4.2c1,0.4,2.1,0,2.7-0.9l6.5-10l11.5-3.1c1-0.3,1.7-1.2,1.7-2.3l-0.6-11.9l7.5-9.3
			c0.7-0.8,0.7-2,0-2.8L182.2,124.6z M154.5,65.6l11.7,8.6h-15.1c-1.2,0-2.3,1-2.3,2.3v24.1l-10.6-4c-1-0.4-2.1,0-2.7,0.9l-6.5,10
			l-11.5,3.1c-1,0.3-1.7,1.2-1.7,2.3l0.6,11.9l-7.5,9.3c-0.7,0.8-0.7,2,0,2.8l7.5,9.3l-0.6,11.9c-0.1,1.1,0.6,2,1.7,2.3l10.7,2.9H47
			V76.4c0-1.2-1-2.3-2.3-2.3H29.6l68.3-49.7l45.2,32.9l0-5.6V39.4h11.4v20.7L154.5,65.6z M178.1,143.8c-0.3,0.4-0.5,1-0.5,1.5
			l0.5,10.9l-10.6,2.9c-0.5,0.1-1,0.5-1.3,0.9l-6,9.2l-10.2-3.9c-0.5-0.2-1.1-0.2-1.6,0l-10.2,3.9l-6-9.2c-0.3-0.5-0.8-0.8-1.3-0.9
			l-10.6-2.9l0.5-10.9c0-0.6-0.1-1.1-0.5-1.5l-6.9-8.5l6.9-8.5c0.3-0.4,0.5-1,0.5-1.5l-0.5-10.9l10.6-2.9c0.5-0.1,1-0.5,1.3-0.9
			l6-9.2l10.2,3.9c0.5,0.2,1.1,0.2,1.6,0l10.2-3.9l6,9.2c0.3,0.5,0.8,0.8,1.3,0.9l10.6,2.9l-0.5,10.9c0,0.6,0.1,1.1,0.5,1.5l6.9,8.5
			L178.1,143.8z"/>
		<path fill="#E91E63" d="M147.5,124.9c0-4.2-3.4-7.6-7.6-7.6c-4.2,0-7.6,3.4-7.6,7.6s3.4,7.6,7.6,7.6
			C144.1,132.4,147.5,129.1,147.5,124.9z M136.9,124.9c0-1.7,1.4-3,3-3c1.7,0,3,1.4,3,3s-1.4,3-3,3
			C138.3,127.9,136.9,126.6,136.9,124.9L136.9,124.9z"/>
		<path fill="#E91E63" d="M158.2,138.5c-4.2,0-7.6,3.4-7.6,7.6s3.4,7.6,7.6,7.6c4.2,0,7.6-3.4,7.6-7.6
			C165.8,141.9,162.4,138.5,158.2,138.5z M158.2,149.1c-1.7,0-3-1.4-3-3c0-1.7,1.4-3,3-3c1.7,0,3,1.4,3,3
			C161.2,147.8,159.9,149.1,158.2,149.1z"/>
		<path fill="#E91E63" d="M162.5,115.1c-1-0.7-2.4-0.4-3.1,0.7l-23.9,36.6c-0.4,0.7-0.5,1.5-0.1,2.3c0.4,0.7,1.1,1.2,1.9,1.2
			c0.8,0,1.6-0.4,2-1l23.8-36.6C163.8,117.2,163.5,115.8,162.5,115.1z"/>
	</g>
</g>

</svg>


