<?xml version="1.0" encoding="UTF-8"?>
<svg id="Capa_1" data-name="Capa 1" xmlns="http://www.w3.org/2000/svg" viewBox="0 0 23 21.57">
  <defs>
    <style>
      .cls-1 {
        fill: #fff;
      }

      .cls-2 {
        opacity: .9;
      }
    </style>
  </defs>
  <g class="cls-2">
    <path class="cls-1" d="M0,.61C.19,.15,.54-.02,1.03,0c.5,.03,1,0,1.5,0,.89,0,1.51,.53,1.66,1.41,.07,.43,.16,.85,.23,1.28,.08,.43,.15,.85,.24,1.31,.1,0,.21,0,.31,0,5.44,0,10.88,0,16.32,0,.82,0,1.43,.44,1.65,1.15,.11,.37,.04,.72-.03,1.08-.41,2.26-.82,4.53-1.24,6.79-.16,.85-.78,1.35-1.66,1.35-4.38,0-8.77,0-13.15,0-.1,0-.2,0-.31,0,.1,.54,.19,1.06,.29,1.6,.12,0,.22,0,.32,0,3.99,0,7.99,0,11.98,0,1.63,0,2.88,1.29,2.83,2.91-.04,1.4-1.2,2.59-2.61,2.67-1.43,.09-2.7-.92-2.94-2.31-.09-.51-.03-1.01,.15-1.49,.02-.05,.03-.11,.06-.17h-6.87c.07,.26,.15,.5,.19,.75,.21,1.29-.5,2.55-1.71,3.03-1.22,.49-2.61,.06-3.35-1.03-.74-1.09-.62-2.54,.29-3.49,.15-.16,.18-.27,.13-.49-.19-.89-.34-1.8-.51-2.69-.59-3.25-1.18-6.51-1.77-9.76-.14-.76-.28-1.52-.42-2.31-.57,0-1.13,0-1.69,0-.14,0-.31,0-.41-.07-.19-.15-.33-.35-.5-.53,0-.13,0-.27,0-.4ZM21.4,5.62H4.95c.44,2.4,.87,4.77,1.3,7.15h13.85c.44-2.39,.87-4.77,1.3-7.15Zm-13.02,13.15c0-.65-.54-1.19-1.19-1.19-.67,0-1.21,.54-1.21,1.2,0,.65,.54,1.19,1.19,1.19,.66,0,1.2-.54,1.21-1.2Zm11.98,0c0-.65-.53-1.2-1.18-1.2-.67,0-1.21,.53-1.21,1.19,0,.65,.53,1.19,1.18,1.2,.66,0,1.21-.53,1.21-1.19Z"/>
  </g>
</svg>