<?xml version="1.0" encoding="utf-8"?>
<!-- Generator: Adobe Illustrator 26.4.1, SVG Export Plug-In . SVG Version: 6.00 Build 0)  -->
<svg version="1.1" id="Capa_1" xmlns="http://www.w3.org/2000/svg" xmlns:xlink="http://www.w3.org/1999/xlink" x="0px" y="0px"
	 viewBox="0 0 850 850" style="enable-background:new 0 0 850 850;" xml:space="preserve">
<style type="text/css">
	.st0{fill:#CC9635;stroke:#CC9635;stroke-width:50.33;stroke-linejoin:round;}
</style>
<path class="st0" d="M798.9,274.6C798.9,171,714.9,87,611.3,87c-96.2,0-175.5,72.4-186.3,165.8C414.2,159.4,334.9,87,238.7,87
	C135.1,87,51.1,171,51.1,274.6c0,45.9,7.2,76.7,43.8,120.5S425,760,425,760s299-330.2,330.1-365S798.9,320.5,798.9,274.6z"/>
</svg>
