<?xml version="1.0" encoding="UTF-8"?>
<svg id="Capa_1" data-name="Capa 1" xmlns="http://www.w3.org/2000/svg" viewBox="0 0 16.91 17.59">
  <defs>
    <style>
      .cls-1 {
        fill: none;
        stroke: #cc9633;
        stroke-miterlimit: 10;
      }
    </style>
  </defs>
  <line class="cls-1" x1=".36" y1=".35" x2="16.55" y2="17.25"/>
  <line class="cls-1" x1="16.55" y1=".35" x2=".36" y2="17.25"/>
</svg>