<!--Scalable Vector Graphic-->
<svg xmlns="http://www.w3.org/2000/svg" 
     xmlns:xlink="http://www.w3.org/1999/xlink"  
     width="150px" 
     height="150px" 
     viewBox="0 0 150px 150px">

<rect fill="none" width="150" height="150"/>
<g id="icon_1_" transform="translate(-2.4722222222222285 -2.4722222222222285) scale(4.94 4.94)">
	<path fill="#FFFFFF" d="M25.8,27.5H5.5c-2.7,0-4.8-2.2-4.8-4.8V9.8C0.7,7.2,2.9,5,5.5,5h20.3c2.7,0,4.8,2.2,4.8,4.8v12.8
		C30.7,25.3,28.5,27.5,25.8,27.5z M5.5,6.4c-1.9,0-3.4,1.5-3.4,3.4v12.8c0,1.9,1.5,3.4,3.4,3.4h20.3c1.9,0,3.4-1.5,3.4-3.4V9.8
		c0-1.9-1.5-3.4-3.4-3.4H5.5z"/>
	<path fill="#FFFFFF" d="M4.4,9.9c3.6,3.5,7.2,7,10.8,10.5c0.7,0.7,1.7-0.4,1-1c-3.6-3.5-7.2-7-10.8-10.5C4.7,8.2,3.7,9.2,4.4,9.9
		L4.4,9.9z"/>
	<path fill="#FFFFFF" d="M16.2,20.4c3.6-3.5,7.2-7,10.8-10.5c0.7-0.7-0.4-1.7-1-1c-3.6,3.5-7.2,7-10.8,10.5
		C14.5,20,15.5,21,16.2,20.4L16.2,20.4z"/>
	<path fill="#FFFFFF" d="M26.9,22.9c-2.4-2.3-4.8-4.5-7.2-6.8c-0.7-0.6-1.7,0.4-1,1c2.4,2.3,4.8,4.5,7.2,6.8
		C26.6,24.5,27.6,23.5,26.9,22.9L26.9,22.9z"/>
	<path fill="#FFFFFF" d="M5.5,23.9c2.4-2.3,4.8-4.5,7.2-6.8c0.7-0.6-0.3-1.7-1-1c-2.4,2.3-4.8,4.5-7.2,6.8
		C3.8,23.5,4.8,24.5,5.5,23.9L5.5,23.9z"/>
</g>

</svg>









