<svg xmlns="http://www.w3.org/2000/svg" width="100" height="100" viewBox="0 0 100 100">
  <defs>
    <style>
      .cls-1 {
        fill: #eb5f19;
        fill-rule: evenodd;
      }
    </style>
  </defs>
  <path id="COMPUTER_UPLOAD" data-name="COMPUTER / UPLOAD" class="cls-1" d="M89.744,79.812H62.786v7.077l5.675,5.662v1.416H31.572V92.551l5.675-5.662V79.812H10.29a4.252,4.252,0,0,1-4.256-4.247V18.942A4.251,4.251,0,0,1,10.29,14.7H36.559l-5.675,5.662H11.709V68.487H88.325V20.359H69.15L63.475,14.7H89.744A4.251,4.251,0,0,1,94,18.942V75.564A4.252,4.252,0,0,1,89.744,79.812ZM59.949,27.436a4.245,4.245,0,0,1-3.01-1.244l-2.666-2.659V43.007a4.256,4.256,0,0,1-8.513,0V23.533l-2.666,2.659a4.252,4.252,0,1,1-6.02-6.006l9.932-9.908a4.261,4.261,0,0,1,6.02,0l9.931,9.909A4.244,4.244,0,0,1,59.949,27.436Z"/>
</svg>
