<svg xmlns="http://www.w3.org/2000/svg" xmlns:xlink="http://www.w3.org/1999/xlink" width="100" height="100" viewBox="0 0 100 100">
  
<rect fill="none" width="100" height="100"/>
<g>
	<path fill="none" stroke="#000000" stroke-width="1.9376" stroke-miterlimit="10" d="M22.8,68.1c0,5,4.1,9.1,9.1,9.1
		s9.1-4.1,9.1-9.1c0-1.3-0.3-2.7-0.9-3.9l1.7-1.7c5,3.4,11.6,3.4,16.6,0l1.7,1.7c-0.6,1.2-0.9,2.5-0.9,3.9c0,5,4.1,9.1,9.1,9.1
		c5,0,9.1-4.1,9.1-9.1c0-5-4.1-9.1-9.1-9.1c-1.3,0-2.7,0.3-3.9,0.9l-1.7-1.7c3.4-5,3.4-11.6,0-16.6l1.7-1.7c1.2,0.6,2.5,0.9,3.9,0.9
		c5,0,9.1-4.1,9.1-9.1s-4-9.1-9.1-9.1c-5,0-9.1,4.1-9.1,9.1c0,1.3,0.3,2.7,0.9,3.9l-1.7,1.7c-5-3.4-11.6-3.4-16.6,0L40,35.8
		c0.6-1.2,0.9-2.5,0.9-3.9c0-5-4.1-9.1-9.1-9.1s-9.1,4.1-9.1,9.1"/>
	<path fill="none" stroke="#000000" stroke-width="1.9376" stroke-miterlimit="10" d="M22.8,31.9c0,5,4.1,9.1,9.1,9.1
		c1.3,0,2.7-0.3,3.9-0.9l1.7,1.7c-3.4,5-3.4,11.6,0,16.6L35.8,60c-1.2-0.6-2.5-0.9-3.9-0.9c-5,0-9.1,4.1-9.1,9.1"/>
	<path fill="none" stroke="#000000" stroke-width="1.9376" stroke-miterlimit="10" d="M68.1,28.9c1.7,0,3,1.3,3,3c0,1.7-1.3,3-3,3
		c-1.7,0-3-1.3-3-3C65.1,30.2,66.5,28.9,68.1,28.9z"/>
	<path fill="none" stroke="#000000" stroke-width="1.9376" stroke-miterlimit="10" d="M28.9,31.9c0-1.7,1.3-3,3-3c1.7,0,3,1.3,3,3
		c0,1.7-1.3,3-3,3C30.2,34.9,28.9,33.5,28.9,31.9"/>
	<path fill="none" stroke="#000000" stroke-width="1.9376" stroke-miterlimit="10" d="M28.9,68.1c0-1.7,1.3-3,3-3c1.7,0,3,1.3,3,3
		c0,1.7-1.3,3-3,3C30.2,71.1,28.9,69.8,28.9,68.1"/>
	<path fill="none" stroke="#000000" stroke-width="1.9376" stroke-miterlimit="10" d="M50,59.1c-5,0-9.1-4.1-9.1-9.1
		s4.1-9.1,9.1-9.1s9.1,4.1,9.1,9.1S55,59.1,50,59.1z"/>
	<path fill="none" stroke="#000000" stroke-width="1.9376" stroke-miterlimit="10" d="M71.1,68.1c0,1.7-1.3,3-3,3c-1.7,0-3-1.3-3-3
		c0-1.7,1.3-3,3-3C69.8,65.1,71.1,66.5,71.1,68.1z"/>
</g>
<circle fill="none" stroke="#000000" stroke-width="1.9388" stroke-miterlimit="10" cx="50" cy="50" r="47.5"/>
</svg>











